code_EDA_files/part4/dump.vcd
$date
	Mon Jan 30 15:59:36 2023
$end
$version
	Icarus Verilog
$end
$timescale
	1ns
$end
$scope module HW $end
$var wire 1 ! AN0 $end
$var wire 1 " AN1 $end
$var wire 1 # AN2 $end
$var wire 1 $ AN3 $end
$var wire 8 % HEX0 [7:0] $end
$var wire 8 & HEX1 [7:0] $end
$var wire 8 ' HEX2 [7:0] $end
$var wire 8 ( HEX3 [7:0] $end
$var wire 1 ) RxReady $end
$var wire 8 * Rx_DATA [7:0] $end
$var wire 8 + Rx_DATA_Encoded [7:0] $end
$var wire 1 , Rx_FERROR $end
$var wire 1 - Rx_PERROR $end
$var wire 1 . Rx_VALID $end
$var wire 1 / TxD $end
$var wire 1 0 Tx_BUSY $end
$var wire 8 1 Tx_Data_Encoded [7:0] $end
$var wire 1 2 dispReady $end
$var wire 4 3 myChar0 [3:0] $end
$var wire 4 4 myChar1 [3:0] $end
$var wire 4 5 myChar2 [3:0] $end
$var wire 4 6 myChar3 [3:0] $end
$var wire 8 7 myHex [7:0] $end
$var wire 1 8 setReady $end
$var reg 1 9 Rx_EN $end
$var reg 8 : Tx_Data [7:0] $end
$var reg 1 ; Tx_EN $end
$var reg 1 < Tx_WR $end
$var reg 3 = baud_select [2:0] $end
$var reg 1 > clk $end
$var reg 16 ? dataToSend [15:0] $end
$var reg 1 @ reset $end
$var reg 3 A wrong_baud_select [2:0] $end
$scope module disp0 $end
$var wire 4 B char [3:0] $end
$var reg 8 C LED [7:0] $end
$upscope $end
$scope module disp1 $end
$var wire 4 D char [3:0] $end
$var reg 8 E LED [7:0] $end
$upscope $end
$scope module disp2 $end
$var wire 4 F char [3:0] $end
$var reg 8 G LED [7:0] $end
$upscope $end
$scope module disp3 $end
$var wire 4 H char [3:0] $end
$var reg 8 I LED [7:0] $end
$upscope $end
$scope module Uo $end
$var wire 8 J HEX0 [7:0] $end
$var wire 8 K HEX1 [7:0] $end
$var wire 8 L HEX2 [7:0] $end
$var wire 8 M HEX3 [7:0] $end
$var wire 1 N clk $end
$var wire 1 2 readyAnodes $end
$var reg 1 O AN0 $end
$var reg 1 P AN1 $end
$var reg 1 Q AN2 $end
$var reg 1 R AN3 $end
$var reg 3 S current_state [2:0] $end
$var integer 32 T cycles [31:0] $end
$var reg 8 U myHex [7:0] $end
$var reg 3 V next_state [2:0] $end
$upscope $end
$scope module mess $end
$var wire 1 ) RxReady $end
$var wire 8 W Rx_DATA [7:0] $end
$var wire 1 , Rx_FERROR $end
$var wire 1 - Rx_PERROR $end
$var wire 1 . Rx_VALID $end
$var wire 1 N clk $end
$var reg 1 X Valid1 $end
$var reg 1 Y Valid2 $end
$var reg 2 Z current_state [1:0] $end
$var reg 1 [ dispReady $end
$var reg 4 \ myChar0 [3:0] $end
$var reg 4 ] myChar1 [3:0] $end
$var reg 4 ^ myChar2 [3:0] $end
$var reg 4 _ myChar3 [3:0] $end
$var reg 2 ` next_state [1:0] $end
$var reg 1 a set $end
$var reg 1 b setReady $end
$upscope $end
$scope module Ut $end
$var wire 8 c Tx_Data [7:0] $end
$var wire 1 d Tx_EN $end
$var wire 1 e Tx_WR $end
$var wire 1 f Tx_sample_ENABLE $end
$var wire 3 g baud_select [2:0] $end
$var wire 1 N clk $end
$var wire 1 h reset $end
$var reg 1 i TxD $end
$var reg 1 j Tx_BUSY $end
$var reg 1 k current_state $end
$var reg 1 l next_state $end
$var reg 1 m parity_bit $end
$var reg 4 n tx_counter [3:0] $end
$scope module baud_controller_tx_instance $end
$var wire 3 o baud_select [2:0] $end
$var wire 1 N clk $end
$var wire 1 h reset $end
$var reg 16 p baudCounter [15:0] $end
$var reg 16 q divisor [15:0] $end
$var reg 1 r sample_ENABLE $end
$upscope $end
$upscope $end
$scope module Ur $end
$var wire 1 / RxD $end
$var wire 1 s Rx_EN $end
$var wire 1 t Rx_sample_ENABLE $end
$var wire 3 u baud_select [2:0] $end
$var wire 1 N clk $end
$var wire 1 h reset $end
$var reg 8 v Rx_DATA [7:0] $end
$var reg 1 w Rx_FERROR $end
$var reg 1 x Rx_PERROR $end
$var reg 8 y Rx_POS_DATA [7:0] $end
$var reg 1 z Rx_VALID $end
$var reg 4 { Rx_counter [3:0] $end
$var reg 1 | Rx_parity_bit $end
$var reg 1 } Tx_parity_bit $end
$var reg 1 ~ current_state $end
$var reg 1 !" next_state $end
$var reg 1 "" state $end
$scope module baud_controller_rx_instance $end
$var wire 3 #" baud_select [2:0] $end
$var wire 1 N clk $end
$var wire 1 h reset $end
$var reg 16 $" baudCounter [15:0] $end
$var reg 16 %" divisor [15:0] $end
$var reg 1 &" sample_ENABLE $end
$upscope $end
$upscope $end
$scope module test0 $end
$var wire 8 '" Data [7:0] $end
$var wire 1 N clk $end
$var reg 8 (" Encoded_Data [7:0] $end
$var integer 32 )" counter [31:0] $end
$var reg 1 *" start $end
$upscope $end
$scope module test1 $end
$var wire 1 , Rx_FERROR $end
$var wire 1 - Rx_PERROR $end
$var wire 1 . Rx_VALID $end
$var wire 1 N clk $end
$var wire 8 +" encoded_Data [7:0] $end
$var reg 1 ," RxReady $end
$var integer 32 -" counter [31:0] $end
$var reg 8 ." decoded_Data [7:0] $end
$var reg 1 /" start $end
$upscope $end
$upscope $end
$enddefinitions $end
#0
$dumpvars
0/"
bx ."
b0 -"
0,"
b0 +"
0*"
b1 )"
bx1 ("
b10100001 '"
0&"
b11011 %"
b1 $"
b111 #"
0""
1!"
1~
0}
0|
b0 {
0z
bx y
0x
0w
b0 v
b111 u
0t
1s
0r
b11011 q
b1 p
b111 o
b0 n
0m
1l
0k
0j
1i
0h
b111 g
0f
1e
1d
bx1 c
0b
0a
b1 `
bx _
bx ^
bx ]
bx \
0[
b1 Z
0Y
0X
bx W
b100 V
b0 U
b1111 T
b100 S
1R
1Q
1P
1O
1N
bx M
bx L
bx K
bx J
bx I
bx H
bx G
bx F
bx E
bx D
bx C
bx B
b100 A
0@
b1010000110010100 ?
1>
b111 =
1<
1;
b10100001 :
19
08
b0 7
bx 6
bx 5
bx 4
bx 3
02
bx1 1
00
1/
0.
0-
0,
b0 +
bx *
0)
bx (
bx '
bx &
bx %
1$
1#
1"
1!
$end
#5
0<
0e
#10
0>
0N
#20
b10 )"
bx11 ("
bx11 1
bx11 c
b10 $"
b10 p
1>
1N
#30
0>
0N
#40
b11 p
b11 $"
b11 )"
bx111 ("
bx111 1
bx111 c
1>
1N
#50
0>
0N
#60
b100 )"
bx1111 ("
bx1111 1
bx1111 c
b100 $"
b100 p
1>
1N
#70
0>
0N
#80
b101 p
b101 $"
b101 )"
bx11111 ("
bx11111 1
bx11111 c
1>
1N
#90
0>
0N
#100
b110 )"
bx011111 ("
bx011111 1
bx011111 c
b110 $"
b110 p
1>
1N
#110
0>
0N
#120
b111 p
b111 $"
b111 )"
bx0011111 ("
bx0011111 1
bx0011111 c
1>
1N
#130
0>
0N
#140
b1000 )"
b10011111 ("
b10011111 1
b10011111 c
b1000 $"
b1000 p
1>
1N
#150
0>
0N
#160
b1001 p
b1001 $"
b0 )"
1>
1N
#170
0>
0N
#180
b1 )"
b1010 $"
b1010 p
b10011111 ("
1>
1N
#190
0>
0N
#200
b1011 p
b1011 $"
b10 )"
b10011111 ("
1>
1N
#210
0>
0N
#220
b11 )"
b10011111 ("
b1100 $"
b1100 p
1>
1N
#230
0>
0N
#240
b1101 p
b1101 $"
b100 )"
b10011111 ("
1>
1N
#250
0>
0N
#260
b101 )"
b10011111 ("
b1110 $"
b1110 p
1>
1N
#270
0>
0N
#280
b1111 p
b1111 $"
b110 )"
b10011111 ("
1>
1N
#290
0>
0N
#300
b111 )"
b10011111 ("
b10000 $"
b10000 p
1>
1N
#310
0>
0N
#320
b10001 p
b10001 $"
b1000 )"
b10011111 ("
1>
1N
#330
0>
0N
#340
b0 )"
b10010 $"
b10010 p
1>
1N
#350
0>
0N
#360
b10011 p
b10011 $"
b1 )"
b10011111 ("
1>
1N
#370
0>
0N
#380
b10 )"
b10011111 ("
b10100 $"
b10100 p
1>
1N
#390
0>
0N
#400
b10101 p
b10101 $"
b11 )"
b10011111 ("
1>
1N
#410
0>
0N
#420
b100 )"
b10011111 ("
b10110 $"
b10110 p
1>
1N
#430
0>
0N
#440
b10111 p
b10111 $"
b101 )"
b10011111 ("
1>
1N
#450
0>
0N
#460
b110 )"
b10011111 ("
b11000 $"
b11000 p
1>
1N
#470
0>
0N
#480
b11001 p
b11001 $"
b111 )"
b10011111 ("
1>
1N
#490
0>
0N
#500
b1000 )"
b10011111 ("
b11010 $"
b11010 p
1>
1N
#510
0>
0N
#520
b1 n
0i
0/
1j
10
1k
1r
1f
b0 p
1&"
1t
b0 $"
b0 )"
1>
1N
#530
0>
0N
#540
b1 )"
b1 $"
b1 p
b10011111 ("
1>
1N
#550
0>
0N
#560
b10 p
b10 $"
b10 )"
b10011111 ("
1>
1N
#570
0>
0N
#580
b11 )"
b10011111 ("
b11 $"
b11 p
1>
1N
#590
0>
0N
#600
b100 p
b100 $"
b100 )"
b10011111 ("
1>
1N
#610
0>
0N
#620
b101 )"
b10011111 ("
b101 $"
b101 p
1>
1N
#630
0>
0N
#640
b110 p
b110 $"
b110 )"
b10011111 ("
1>
1N
#650
0>
0N
#660
b111 )"
b10011111 ("
b111 $"
b111 p
1>
1N
#670
0>
0N
#680
b1000 p
b1000 $"
b1000 )"
b10011111 ("
1>
1N
#690
0>
0N
#700
b0 )"
b1001 $"
b1001 p
1>
1N
#710
0>
0N
#720
b1010 p
b1010 $"
b1 )"
b10011111 ("
1>
1N
#730
0>
0N
#740
b10 )"
b10011111 ("
b1011 $"
b1011 p
1>
1N
#750
0>
0N
#760
b1100 p
b1100 $"
b11 )"
b10011111 ("
1>
1N
#770
0>
0N
#780
b100 )"
b10011111 ("
b1101 $"
b1101 p
1>
1N
#790
0>
0N
#800
b1110 p
b1110 $"
b101 )"
b10011111 ("
1>
1N
#810
0>
0N
#820
b110 )"
b10011111 ("
b1111 $"
b1111 p
1>
1N
#830
0>
0N
#840
b10000 p
b10000 $"
b111 )"
b10011111 ("
1>
1N
#850
0>
0N
#860
b1000 )"
b10011111 ("
b10001 $"
b10001 p
1>
1N
#870
0>
0N
#880
b10010 p
b10010 $"
b0 )"
1>
1N
#890
0>
0N
#900
b1 )"
b10011 $"
b10011 p
b10011111 ("
1>
1N
#910
0>
0N
#920
b10100 p
b10100 $"
b10 )"
b10011111 ("
1>
1N
#930
0>
0N
#940
b11 )"
b10011111 ("
b10101 $"
b10101 p
1>
1N
#950
0>
0N
#960
b10110 p
b10110 $"
b100 )"
b10011111 ("
1>
1N
#970
0>
0N
#980
b101 )"
b10011111 ("
b10111 $"
b10111 p
1>
1N
#990
0>
0N
#1000
b11000 p
b11000 $"
b110 )"
b10011111 ("
1>
1N
#1010
0>
0N
#1020
b111 )"
b10011111 ("
b11001 $"
b11001 p
1>
1N
#1030
0>
0N
#1040
b11010 p
b11010 $"
b1000 )"
b10011111 ("
1>
1N
#1050
0>
0N
#1060
b1 {
1""
b0 )"
0&"
0t
b0 $"
0r
0f
b0 p
1>
1N
#1070
0>
0N
#1080
b1 p
b1 $"
b1 )"
b10011111 ("
1>
1N
#1090
0>
0N
#1100
b10 )"
b10011111 ("
b10 $"
b10 p
1>
1N
#1110
0>
0N
#1120
b11 p
b11 $"
b11 )"
b10011111 ("
1>
1N
#1130
0>
0N
#1140
b100 )"
b10011111 ("
b100 $"
b100 p
1>
1N
#1150
0>
0N
#1160
b101 p
b101 $"
b101 )"
b10011111 ("
1>
1N
#1170
0>
0N
#1180
b110 )"
b10011111 ("
b110 $"
b110 p
1>
1N
#1190
0>
0N
#1200
b111 p
b111 $"
b111 )"
b10011111 ("
1>
1N
#1210
0>
0N
#1220
b1000 )"
b10011111 ("
b1000 $"
b1000 p
1>
1N
#1230
0>
0N
#1240
b1001 p
b1001 $"
b0 )"
1>
1N
#1250
0>
0N
#1260
b1 )"
b1010 $"
b1010 p
b10011111 ("
1>
1N
#1270
0>
0N
#1280
b1011 p
b1011 $"
b10 )"
b10011111 ("
1>
1N
#1290
0>
0N
#1300
b11 )"
b10011111 ("
b1100 $"
b1100 p
1>
1N
#1310
0>
0N
#1320
b1101 p
b1101 $"
b100 )"
b10011111 ("
1>
1N
#1330
0>
0N
#1340
b101 )"
b10011111 ("
b1110 $"
b1110 p
1>
1N
#1350
0>
0N
#1360
b1111 p
b1111 $"
b110 )"
b10011111 ("
1>
1N
#1370
0>
0N
#1380
b111 )"
b10011111 ("
b10000 $"
b10000 p
1>
1N
#1390
0>
0N
#1400
b10001 p
b10001 $"
b1000 )"
b10011111 ("
1>
1N
#1410
0>
0N
#1420
b0 )"
b10010 $"
b10010 p
1>
1N
#1430
0>
0N
#1440
b10011 p
b10011 $"
b1 )"
b10011111 ("
1>
1N
#1450
0>
0N
#1460
b10 )"
b10011111 ("
b10100 $"
b10100 p
1>
1N
#1470
0>
0N
#1480
b10101 p
b10101 $"
b11 )"
b10011111 ("
1>
1N
#1490
0>
0N
#1500
b100 )"
b10011111 ("
b10110 $"
b10110 p
1>
1N
#1510
0>
0N
#1520
b10111 p
b10111 $"
b101 )"
b10011111 ("
1>
1N
#1530
0>
0N
#1540
b110 )"
b10011111 ("
b11000 $"
b11000 p
1>
1N
#1550
0>
0N
#1560
b11001 p
b11001 $"
b111 )"
b10011111 ("
1>
1N
#1570
0>
0N
#1580
b1000 )"
b10011111 ("
b11010 $"
b11010 p
1>
1N
#1590
0>
0N
#1600
b10 n
1m
1i
1/
1r
1f
b0 p
1&"
1t
b0 $"
b0 )"
1>
1N
#1610
0>
0N
#1620
b1 )"
b1 $"
b1 p
b10011111 ("
1>
1N
#1630
0>
0N
#1640
b10 p
b10 $"
b10 )"
b10011111 ("
1>
1N
#1650
0>
0N
#1660
b11 )"
b10011111 ("
b11 $"
b11 p
1>
1N
#1670
0>
0N
#1680
b100 p
b100 $"
b100 )"
b10011111 ("
1>
1N
#1690
0>
0N
#1700
b101 )"
b10011111 ("
b101 $"
b101 p
1>
1N
#1710
0>
0N
#1720
b110 p
b110 $"
b110 )"
b10011111 ("
1>
1N
#1730
0>
0N
#1740
b111 )"
b10011111 ("
b111 $"
b111 p
1>
1N
#1750
0>
0N
#1760
b1000 p
b1000 $"
b1000 )"
b10011111 ("
1>
1N
#1770
0>
0N
#1780
b0 )"
b1001 $"
b1001 p
1>
1N
#1790
0>
0N
#1800
b1010 p
b1010 $"
b1 )"
b10011111 ("
1>
1N
#1810
0>
0N
#1820
b10 )"
b10011111 ("
b1011 $"
b1011 p
1>
1N
#1830
0>
0N
#1840
b1100 p
b1100 $"
b11 )"
b10011111 ("
1>
1N
#1850
0>
0N
#1860
b100 )"
b10011111 ("
b1101 $"
b1101 p
1>
1N
#1870
0>
0N
#1880
b1110 p
b1110 $"
b101 )"
b10011111 ("
1>
1N
#1890
0>
0N
#1900
b110 )"
b10011111 ("
b1111 $"
b1111 p
1>
1N
#1910
0>
0N
#1920
b10000 p
b10000 $"
b111 )"
b10011111 ("
1>
1N
#1930
0>
0N
#1940
b1000 )"
b10011111 ("
b10001 $"
b10001 p
1>
1N
#1950
0>
0N
#1960
b10010 p
b10010 $"
b0 )"
1>
1N
#1970
0>
0N
#1980
b1 )"
b10011 $"
b10011 p
b10011111 ("
1>
1N
#1990
0>
0N
#2000
b10100 p
b10100 $"
b10 )"
b10011111 ("
1>
1N
#2010
0>
0N
#2020
b11 )"
b10011111 ("
b10101 $"
b10101 p
1>
1N
#2030
0>
0N
#2040
b10110 p
b10110 $"
b100 )"
b10011111 ("
1>
1N
#2050
0>
0N
#2060
b101 )"
b10011111 ("
b10111 $"
b10111 p
1>
1N
#2070
0>
0N
#2080
b11000 p
b11000 $"
b110 )"
b10011111 ("
1>
1N
#2090
0>
0N
#2100
b111 )"
b10011111 ("
b11001 $"
b11001 p
1>
1N
#2110
0>
0N
#2120
b11010 p
b11010 $"
b1000 )"
b10011111 ("
1>
1N
#2130
0>
0N
#2140
1|
b10 {
bx1 y
b0 )"
0&"
0t
b0 $"
0r
0f
b0 p
1>
1N
#2150
0>
0N
#2160
b1 p
b1 $"
b1 )"
b10011111 ("
1>
1N
#2170
0>
0N
#2180
b10 )"
b10011111 ("
b10 $"
b10 p
1>
1N
#2190
0>
0N
#2200
b11 p
b11 $"
b11 )"
b10011111 ("
1>
1N
#2210
0>
0N
#2220
b100 )"
b10011111 ("
b100 $"
b100 p
1>
1N
#2230
0>
0N
#2240
b101 p
b101 $"
b101 )"
b10011111 ("
1>
1N
#2250
0>
0N
#2260
b110 )"
b10011111 ("
b110 $"
b110 p
1>
1N
#2270
0>
0N
#2280
b111 p
b111 $"
b111 )"
b10011111 ("
1>
1N
#2290
0>
0N
#2300
b1000 )"
b10011111 ("
b1000 $"
b1000 p
1>
1N
#2310
0>
0N
#2320
b1001 p
b1001 $"
b0 )"
1>
1N
#2330
0>
0N
#2340
b1 )"
b1010 $"
b1010 p
b10011111 ("
1>
1N
#2350
0>
0N
#2360
b1011 p
b1011 $"
b10 )"
b10011111 ("
1>
1N
#2370
0>
0N
#2380
b11 )"
b10011111 ("
b1100 $"
b1100 p
1>
1N
#2390
0>
0N
#2400
b1101 p
b1101 $"
b100 )"
b10011111 ("
1>
1N
#2410
0>
0N
#2420
b101 )"
b10011111 ("
b1110 $"
b1110 p
1>
1N
#2430
0>
0N
#2440
b1111 p
b1111 $"
b110 )"
b10011111 ("
1>
1N
#2450
0>
0N
#2460
b111 )"
b10011111 ("
b10000 $"
b10000 p
1>
1N
#2470
0>
0N
#2480
b10001 p
b10001 $"
b1000 )"
b10011111 ("
1>
1N
#2490
0>
0N
#2500
b0 )"
b10010 $"
b10010 p
1>
1N
#2510
0>
0N
#2520
b10011 p
b10011 $"
b1 )"
b10011111 ("
1>
1N
#2530
0>
0N
#2540
b10 )"
b10011111 ("
b10100 $"
b10100 p
1>
1N
#2550
0>
0N
#2560
b10101 p
b10101 $"
b11 )"
b10011111 ("
1>
1N
#2570
0>
0N
#2580
b100 )"
b10011111 ("
b10110 $"
b10110 p
1>
1N
#2590
0>
0N
#2600
b10111 p
b10111 $"
b101 )"
b10011111 ("
1>
1N
#2610
0>
0N
#2620
b110 )"
b10011111 ("
b11000 $"
b11000 p
1>
1N
#2630
0>
0N
#2640
b11001 p
b11001 $"
b111 )"
b10011111 ("
1>
1N
#2650
0>
0N
#2660
b1000 )"
b10011111 ("
b11010 $"
b11010 p
1>
1N
#2670
0>
0N
#2680
b11 n
0m
1r
1f
b0 p
1&"
1t
b0 $"
b0 )"
1>
1N
#2690
0>
0N
#2700
b1 )"
b1 $"
b1 p
b10011111 ("
1>
1N
#2710
0>
0N
#2720
b10 p
b10 $"
b10 )"
b10011111 ("
1>
1N
#2730
0>
0N
#2740
b11 )"
b10011111 ("
b11 $"
b11 p
1>
1N
#2750
0>
0N
#2760
b100 p
b100 $"
b100 )"
b10011111 ("
1>
1N
#2770
0>
0N
#2780
b101 )"
b10011111 ("
b101 $"
b101 p
1>
1N
#2790
0>
0N
#2800
b110 p
b110 $"
b110 )"
b10011111 ("
1>
1N
#2810
0>
0N
#2820
b111 )"
b10011111 ("
b111 $"
b111 p
1>
1N
#2830
0>
0N
#2840
b1000 p
b1000 $"
b1000 )"
b10011111 ("
1>
1N
#2850
0>
0N
#2860
b0 )"
b1001 $"
b1001 p
1>
1N
#2870
0>
0N
#2880
b1010 p
b1010 $"
b1 )"
b10011111 ("
1>
1N
#2890
0>
0N
#2900
b10 )"
b10011111 ("
b1011 $"
b1011 p
1>
1N
#2910
0>
0N
#2920
b1100 p
b1100 $"
b11 )"
b10011111 ("
1>
1N
#2930
0>
0N
#2940
b100 )"
b10011111 ("
b1101 $"
b1101 p
1>
1N
#2950
0>
0N
#2960
b1110 p
b1110 $"
b101 )"
b10011111 ("
1>
1N
#2970
0>
0N
#2980
b110 )"
b10011111 ("
b1111 $"
b1111 p
1>
1N
#2990
0>
0N
#3000
b10000 p
b10000 $"
b111 )"
b10011111 ("
1>
1N
#3010
0>
0N
#3020
b1000 )"
b10011111 ("
b10001 $"
b10001 p
1>
1N
#3030
0>
0N
#3040
b10010 p
b10010 $"
b0 )"
1>
1N
#3050
0>
0N
#3060
b1 )"
b10011 $"
b10011 p
b10011111 ("
1>
1N
#3070
0>
0N
#3080
b10100 p
b10100 $"
b10 )"
b10011111 ("
1>
1N
#3090
0>
0N
#3100
b11 )"
b10011111 ("
b10101 $"
b10101 p
1>
1N
#3110
0>
0N
#3120
b10110 p
b10110 $"
b100 )"
b10011111 ("
1>
1N
#3130
0>
0N
#3140
b101 )"
b10011111 ("
b10111 $"
b10111 p
1>
1N
#3150
0>
0N
#3160
b11000 p
b11000 $"
b110 )"
b10011111 ("
1>
1N
#3170
0>
0N
#3180
b111 )"
b10011111 ("
b11001 $"
b11001 p
1>
1N
#3190
0>
0N
#3200
b11010 p
b11010 $"
b1000 )"
b10011111 ("
1>
1N
#3210
0>
0N
#3220
0|
b11 {
bx11 y
b0 )"
0&"
0t
b0 $"
0r
0f
b0 p
1>
1N
#3230
0>
0N
#3240
b1 p
b1 $"
b1 )"
b10011111 ("
1>
1N
#3250
0>
0N
#3260
b10 )"
b10011111 ("
b10 $"
b10 p
1>
1N
#3270
0>
0N
#3280
b11 p
b11 $"
b11 )"
b10011111 ("
1>
1N
#3290
0>
0N
#3300
b100 )"
b10011111 ("
b100 $"
b100 p
1>
1N
#3310
0>
0N
#3320
b101 p
b101 $"
b101 )"
b10011111 ("
1>
1N
#3330
0>
0N
#3340
b110 )"
b10011111 ("
b110 $"
b110 p
1>
1N
#3350
0>
0N
#3360
b111 p
b111 $"
b111 )"
b10011111 ("
1>
1N
#3370
0>
0N
#3380
b1000 )"
b10011111 ("
b1000 $"
b1000 p
1>
1N
#3390
0>
0N
#3400
b1001 p
b1001 $"
b0 )"
1>
1N
#3410
0>
0N
#3420
b1 )"
b1010 $"
b1010 p
b10011111 ("
1>
1N
#3430
0>
0N
#3440
b1011 p
b1011 $"
b10 )"
b10011111 ("
1>
1N
#3450
0>
0N
#3460
b11 )"
b10011111 ("
b1100 $"
b1100 p
1>
1N
#3470
0>
0N
#3480
b1101 p
b1101 $"
b100 )"
b10011111 ("
1>
1N
#3490
0>
0N
#3500
b101 )"
b10011111 ("
b1110 $"
b1110 p
1>
1N
#3510
0>
0N
#3520
b1111 p
b1111 $"
b110 )"
b10011111 ("
1>
1N
#3530
0>
0N
#3540
b111 )"
b10011111 ("
b10000 $"
b10000 p
1>
1N
#3550
0>
0N
#3560
b10001 p
b10001 $"
b1000 )"
b10011111 ("
1>
1N
#3570
0>
0N
#3580
b0 )"
b10010 $"
b10010 p
1>
1N
#3590
0>
0N
#3600
b10011 p
b10011 $"
b1 )"
b10011111 ("
1>
1N
#3610
0>
0N
#3620
b10 )"
b10011111 ("
b10100 $"
b10100 p
1>
1N
#3630
0>
0N
#3640
b10101 p
b10101 $"
b11 )"
b10011111 ("
1>
1N
#3650
0>
0N
#3660
b100 )"
b10011111 ("
b10110 $"
b10110 p
1>
1N
#3670
0>
0N
#3680
b10111 p
b10111 $"
b101 )"
b10011111 ("
1>
1N
#3690
0>
0N
#3700
b110 )"
b10011111 ("
b11000 $"
b11000 p
1>
1N
#3710
0>
0N
#3720
b11001 p
b11001 $"
b111 )"
b10011111 ("
1>
1N
#3730
0>
0N
#3740
b1000 )"
b10011111 ("
b11010 $"
b11010 p
1>
1N
#3750
0>
0N
#3760
b100 n
1m
1r
1f
b0 p
1&"
1t
b0 $"
b0 )"
1>
1N
#3770
0>
0N
#3780
b1 )"
b1 $"
b1 p
b10011111 ("
1>
1N
#3790
0>
0N
#3800
b10 p
b10 $"
b10 )"
b10011111 ("
1>
1N
#3810
0>
0N
#3820
b11 )"
b10011111 ("
b11 $"
b11 p
1>
1N
#3830
0>
0N
#3840
b100 p
b100 $"
b100 )"
b10011111 ("
1>
1N
#3850
0>
0N
#3860
b101 )"
b10011111 ("
b101 $"
b101 p
1>
1N
#3870
0>
0N
#3880
b110 p
b110 $"
b110 )"
b10011111 ("
1>
1N
#3890
0>
0N
#3900
b111 )"
b10011111 ("
b111 $"
b111 p
1>
1N
#3910
0>
0N
#3920
b1000 p
b1000 $"
b1000 )"
b10011111 ("
1>
1N
#3930
0>
0N
#3940
b0 )"
b1001 $"
b1001 p
1>
1N
#3950
0>
0N
#3960
b1010 p
b1010 $"
b1 )"
b10011111 ("
1>
1N
#3970
0>
0N
#3980
b10 )"
b10011111 ("
b1011 $"
b1011 p
1>
1N
#3990
0>
0N
#4000
b1100 p
b1100 $"
b11 )"
b10011111 ("
1>
1N
#4010
0>
0N
#4020
b100 )"
b10011111 ("
b1101 $"
b1101 p
1>
1N
#4030
0>
0N
#4040
b1110 p
b1110 $"
b101 )"
b10011111 ("
1>
1N
#4050
0>
0N
#4060
b110 )"
b10011111 ("
b1111 $"
b1111 p
1>
1N
#4070
0>
0N
#4080
b10000 p
b10000 $"
b111 )"
b10011111 ("
1>
1N
#4090
0>
0N
#4100
b1000 )"
b10011111 ("
b10001 $"
b10001 p
1>
1N
#4110
0>
0N
#4120
b10010 p
b10010 $"
b0 )"
1>
1N
#4130
0>
0N
#4140
b1 )"
b10011 $"
b10011 p
b10011111 ("
1>
1N
#4150
0>
0N
#4160
b10100 p
b10100 $"
b10 )"
b10011111 ("
1>
1N
#4170
0>
0N
#4180
b11 )"
b10011111 ("
b10101 $"
b10101 p
1>
1N
#4190
0>
0N
#4200
b10110 p
b10110 $"
b100 )"
b10011111 ("
1>
1N
#4210
0>
0N
#4220
b101 )"
b10011111 ("
b10111 $"
b10111 p
1>
1N
#4230
0>
0N
#4240
b11000 p
b11000 $"
b110 )"
b10011111 ("
1>
1N
#4250
0>
0N
#4260
b111 )"
b10011111 ("
b11001 $"
b11001 p
1>
1N
#4270
0>
0N
#4280
b11010 p
b11010 $"
b1000 )"
b10011111 ("
1>
1N
#4290
0>
0N
#4300
1|
b100 {
bx111 y
b0 )"
0&"
0t
b0 $"
0r
0f
b0 p
1>
1N
#4310
0>
0N
#4320
b1 p
b1 $"
b1 )"
b10011111 ("
1>
1N
#4330
0>
0N
#4340
b10 )"
b10011111 ("
b10 $"
b10 p
1>
1N
#4350
0>
0N
#4360
b11 p
b11 $"
b11 )"
b10011111 ("
1>
1N
#4370
0>
0N
#4380
b100 )"
b10011111 ("
b100 $"
b100 p
1>
1N
#4390
0>
0N
#4400
b101 p
b101 $"
b101 )"
b10011111 ("
1>
1N
#4410
0>
0N
#4420
b110 )"
b10011111 ("
b110 $"
b110 p
1>
1N
#4430
0>
0N
#4440
b111 p
b111 $"
b111 )"
b10011111 ("
1>
1N
#4450
0>
0N
#4460
b1000 )"
b10011111 ("
b1000 $"
b1000 p
1>
1N
#4470
0>
0N
#4480
b1001 p
b1001 $"
b0 )"
1>
1N
#4490
0>
0N
#4500
b1 )"
b1010 $"
b1010 p
b10011111 ("
1>
1N
#4510
0>
0N
#4520
b1011 p
b1011 $"
b10 )"
b10011111 ("
1>
1N
#4530
0>
0N
#4540
b11 )"
b10011111 ("
b1100 $"
b1100 p
1>
1N
#4550
0>
0N
#4560
b1101 p
b1101 $"
b100 )"
b10011111 ("
1>
1N
#4570
0>
0N
#4580
b101 )"
b10011111 ("
b1110 $"
b1110 p
1>
1N
#4590
0>
0N
#4600
b1111 p
b1111 $"
b110 )"
b10011111 ("
1>
1N
#4610
0>
0N
#4620
b111 )"
b10011111 ("
b10000 $"
b10000 p
1>
1N
#4630
0>
0N
#4640
b10001 p
b10001 $"
b1000 )"
b10011111 ("
1>
1N
#4650
0>
0N
#4660
b0 )"
b10010 $"
b10010 p
1>
1N
#4670
0>
0N
#4680
b10011 p
b10011 $"
b1 )"
b10011111 ("
1>
1N
#4690
0>
0N
#4700
b10 )"
b10011111 ("
b10100 $"
b10100 p
1>
1N
#4710
0>
0N
#4720
b10101 p
b10101 $"
b11 )"
b10011111 ("
1>
1N
#4730
0>
0N
#4740
b100 )"
b10011111 ("
b10110 $"
b10110 p
1>
1N
#4750
0>
0N
#4760
b10111 p
b10111 $"
b101 )"
b10011111 ("
1>
1N
#4770
0>
0N
#4780
b110 )"
b10011111 ("
b11000 $"
b11000 p
1>
1N
#4790
0>
0N
#4800
b11001 p
b11001 $"
b111 )"
b10011111 ("
1>
1N
#4810
0>
0N
#4820
b1000 )"
b10011111 ("
b11010 $"
b11010 p
1>
1N
#4830
0>
0N
#4840
b101 n
0m
1r
1f
b0 p
1&"
1t
b0 $"
b0 )"
1>
1N
#4850
0>
0N
#4860
b1 )"
b1 $"
b1 p
b10011111 ("
1>
1N
#4870
0>
0N
#4880
b10 p
b10 $"
b10 )"
b10011111 ("
1>
1N
#4890
0>
0N
#4900
b11 )"
b10011111 ("
b11 $"
b11 p
1>
1N
#4910
0>
0N
#4920
b100 p
b100 $"
b100 )"
b10011111 ("
1>
1N
#4930
0>
0N
#4940
b101 )"
b10011111 ("
b101 $"
b101 p
1>
1N
#4950
0>
0N
#4960
b110 p
b110 $"
b110 )"
b10011111 ("
1>
1N
#4970
0>
0N
#4980
b111 )"
b10011111 ("
b111 $"
b111 p
1>
1N
#4990
0>
0N
#5000
b1000 p
b1000 $"
b1000 )"
b10011111 ("
1>
1N
#5010
0>
0N
#5020
b0 )"
b1001 $"
b1001 p
1>
1N
#5030
0>
0N
#5040
b1010 p
b1010 $"
b1 )"
b10011111 ("
1>
1N
#5050
0>
0N
#5060
b10 )"
b10011111 ("
b1011 $"
b1011 p
1>
1N
#5070
0>
0N
#5080
b1100 p
b1100 $"
b11 )"
b10011111 ("
1>
1N
#5090
0>
0N
#5100
b100 )"
b10011111 ("
b1101 $"
b1101 p
1>
1N
#5110
0>
0N
